group09_lab5_part5/part5/cpu_wavedata.vcd
$date
	Fri Nov  6 17:58:14 2020
$end
$version
	Icarus Verilog
$end
$timescale
	1s
$end
$scope module cpu_tb $end
$scope module mycpu $end
$scope module reg1 $end
$var reg 8 ! \regfile[0] [7:0] $end
$upscope $end
$upscope $end
$upscope $end
$scope module cpu_tb $end
$scope module mycpu $end
$scope module reg1 $end
$var reg 8 " \regfile[1] [7:0] $end
$upscope $end
$upscope $end
$upscope $end
$scope module cpu_tb $end
$scope module mycpu $end
$scope module reg1 $end
$var reg 8 # \regfile[2] [7:0] $end
$upscope $end
$upscope $end
$upscope $end
$scope module cpu_tb $end
$scope module mycpu $end
$scope module reg1 $end
$var reg 8 $ \regfile[3] [7:0] $end
$upscope $end
$upscope $end
$upscope $end
$scope module cpu_tb $end
$scope module mycpu $end
$scope module reg1 $end
$var reg 8 % \regfile[4] [7:0] $end
$upscope $end
$upscope $end
$upscope $end
$scope module cpu_tb $end
$scope module mycpu $end
$scope module reg1 $end
$var reg 8 & \regfile[5] [7:0] $end
$upscope $end
$upscope $end
$upscope $end
$scope module cpu_tb $end
$scope module mycpu $end
$scope module reg1 $end
$var reg 8 ' \regfile[6] [7:0] $end
$upscope $end
$upscope $end
$upscope $end
$scope module cpu_tb $end
$scope module mycpu $end
$scope module reg1 $end
$var reg 8 ( \regfile[7] [7:0] $end
$upscope $end
$upscope $end
$upscope $end
$scope module cpu_tb $end
$var wire 32 ) PC [31:0] $end
$var wire 32 * INSTRUCTION [31:0] $end
$var reg 1 + CLK $end
$var reg 1 , RESET $end
$scope module mycpu $end
$var wire 1 + CLK $end
$var wire 32 - INSTRUCTION [31:0] $end
$var wire 1 , RESET $end
$var wire 1 . pc_b $end
$var wire 1 / pc_j $end
$var wire 8 0 temp3 [7:0] $end
$var wire 8 1 temp2 [7:0] $end
$var wire 8 2 sra_result [7:0] $end
$var wire 8 3 compliment2 [7:0] $end
$var wire 1 4 ZERO $end
$var wire 8 5 WRITEREG [7:0] $end
$var wire 8 6 WRITEDATA [7:0] $end
$var wire 8 7 RESULT [7:0] $end
$var wire 8 8 REGOUT2 [7:0] $end
$var wire 8 9 REGOUT1 [7:0] $end
$var wire 8 : READREG2 [7:0] $end
$var wire 8 ; READREG1 [7:0] $end
$var wire 32 < PC_UPDATE [31:0] $end
$var wire 32 = PC_NEXT [31:0] $end
$var wire 32 > PC_JUMP [31:0] $end
$var wire 32 ? PC_BRANCH [31:0] $end
$var wire 32 @ PC [31:0] $end
$var wire 4 A OPCODE [3:0] $end
$var wire 8 B OFFSET [7:0] $end
$var reg 1 C WRITE $end
$var reg 1 D b_flag $end
$var reg 1 E comp_flag $end
$var reg 1 F imm_flag $end
$var reg 1 G j_flag $end
$var reg 1 H sra_flag $end
$var reg 3 I temp_sel [2:0] $end
$scope module add1 $end
$var wire 32 J PC_1 [31:0] $end
$var wire 32 K PC_0 [31:0] $end
$upscope $end
$scope module alu1 $end
$var wire 3 L SELECT [2:0] $end
$var wire 1 4 ZERO $end
$var wire 8 M srout [7:0] $end
$var wire 8 N sllout [7:0] $end
$var wire 8 O rorout [7:0] $end
$var wire 8 P orout [7:0] $end
$var wire 8 Q mulout [7:0] $end
$var wire 8 R forwout [7:0] $end
$var wire 8 S andout [7:0] $end
$var wire 8 T addout [7:0] $end
$var wire 8 U RESULT [7:0] $end
$var wire 8 V DATA2 [7:0] $end
$var wire 8 W DATA1 [7:0] $end
$scope module a1 $end
$var wire 8 X RESULT [7:0] $end
$var wire 8 Y DATA2 [7:0] $end
$var wire 8 Z DATA1 [7:0] $end
$upscope $end
$scope module and1 $end
$var wire 8 [ RESULT [7:0] $end
$var wire 8 \ DATA2 [7:0] $end
$var wire 8 ] DATA1 [7:0] $end
$upscope $end
$scope module f1 $end
$var wire 8 ^ RESULT [7:0] $end
$var wire 8 _ DATA2 [7:0] $end
$upscope $end
$scope module m1 $end
$var wire 8 ` in0 [7:0] $end
$var wire 8 a in1 [7:0] $end
$var wire 8 b in2 [7:0] $end
$var wire 3 c sel [2:0] $end
$var wire 8 d in7 [7:0] $end
$var wire 8 e in6 [7:0] $end
$var wire 8 f in5 [7:0] $end
$var wire 8 g in4 [7:0] $end
$var wire 8 h in3 [7:0] $end
$var reg 8 i result [7:0] $end
$upscope $end
$scope module mul1 $end
$var wire 8 j temp7 [7:0] $end
$var wire 8 k temp6 [7:0] $end
$var wire 8 l temp5 [7:0] $end
$var wire 8 m temp4 [7:0] $end
$var wire 8 n temp3 [7:0] $end
$var wire 8 o temp2 [7:0] $end
$var wire 8 p temp1 [7:0] $end
$var wire 8 q temp0 [7:0] $end
$var wire 8 r RESULT [7:0] $end
$var wire 8 s DATA2 [7:0] $end
$var wire 8 t DATA1 [7:0] $end
$scope module mm1 $end
$var wire 1 u control $end
$var wire 8 v in2 [7:0] $end
$var wire 8 w in1 [7:0] $end
$var reg 8 x out [7:0] $end
$upscope $end
$scope module mm2 $end
$var wire 1 y control $end
$var wire 8 z in2 [7:0] $end
$var wire 8 { in1 [7:0] $end
$var reg 8 | out [7:0] $end
$upscope $end
$scope module mm3 $end
$var wire 1 } control $end
$var wire 8 ~ in2 [7:0] $end
$var wire 8 !" in1 [7:0] $end
$var reg 8 "" out [7:0] $end
$upscope $end
$scope module mm4 $end
$var wire 1 #" control $end
$var wire 8 $" in2 [7:0] $end
$var wire 8 %" in1 [7:0] $end
$var reg 8 &" out [7:0] $end
$upscope $end
$scope module mm5 $end
$var wire 1 '" control $end
$var wire 8 (" in2 [7:0] $end
$var wire 8 )" in1 [7:0] $end
$var reg 8 *" out [7:0] $end
$upscope $end
$scope module mm6 $end
$var wire 1 +" control $end
$var wire 8 ," in2 [7:0] $end
$var wire 8 -" in1 [7:0] $end
$var reg 8 ." out [7:0] $end
$upscope $end
$scope module mm7 $end
$var wire 1 /" control $end
$var wire 8 0" in2 [7:0] $end
$var wire 8 1" in1 [7:0] $end
$var reg 8 2" out [7:0] $end
$upscope $end
$scope module mm8 $end
$var wire 1 3" control $end
$var wire 8 4" in2 [7:0] $end
$var wire 8 5" in1 [7:0] $end
$var reg 8 6" out [7:0] $end
$upscope $end
$scope module sll2 $end
$var wire 8 7" DATA1 [7:0] $end
$var wire 8 8" DATA2 [7:0] $end
$var wire 8 9" RESULT [7:0] $end
$var wire 8 :" shifted4 [7:0] $end
$var wire 8 ;" shifted2 [7:0] $end
$var wire 8 <" shifted1 [7:0] $end
$var wire 8 =" OUT3 [7:0] $end
$var wire 8 >" OUT2 [7:0] $end
$var wire 8 ?" OUT1 [7:0] $end
$scope module ml1 $end
$var wire 1 @" control $end
$var wire 8 A" in1 [7:0] $end
$var wire 8 B" in2 [7:0] $end
$var reg 8 C" out [7:0] $end
$upscope $end
$scope module ml2 $end
$var wire 1 D" control $end
$var wire 8 E" in1 [7:0] $end
$var wire 8 F" in2 [7:0] $end
$var reg 8 G" out [7:0] $end
$upscope $end
$scope module ml4 $end
$var wire 1 H" control $end
$var wire 8 I" in1 [7:0] $end
$var wire 8 J" in2 [7:0] $end
$var reg 8 K" out [7:0] $end
$upscope $end
$upscope $end
$scope module sll3 $end
$var wire 8 L" DATA1 [7:0] $end
$var wire 8 M" DATA2 [7:0] $end
$var wire 8 N" RESULT [7:0] $end
$var wire 8 O" shifted4 [7:0] $end
$var wire 8 P" shifted2 [7:0] $end
$var wire 8 Q" shifted1 [7:0] $end
$var wire 8 R" OUT3 [7:0] $end
$var wire 8 S" OUT2 [7:0] $end
$var wire 8 T" OUT1 [7:0] $end
$scope module ml1 $end
$var wire 1 U" control $end
$var wire 8 V" in1 [7:0] $end
$var wire 8 W" in2 [7:0] $end
$var reg 8 X" out [7:0] $end
$upscope $end
$scope module ml2 $end
$var wire 1 Y" control $end
$var wire 8 Z" in1 [7:0] $end
$var wire 8 [" in2 [7:0] $end
$var reg 8 \" out [7:0] $end
$upscope $end
$scope module ml4 $end
$var wire 1 ]" control $end
$var wire 8 ^" in1 [7:0] $end
$var wire 8 _" in2 [7:0] $end
$var reg 8 `" out [7:0] $end
$upscope $end
$upscope $end
$scope module sll4 $end
$var wire 8 a" DATA1 [7:0] $end
$var wire 8 b" DATA2 [7:0] $end
$var wire 8 c" RESULT [7:0] $end
$var wire 8 d" shifted4 [7:0] $end
$var wire 8 e" shifted2 [7:0] $end
$var wire 8 f" shifted1 [7:0] $end
$var wire 8 g" OUT3 [7:0] $end
$var wire 8 h" OUT2 [7:0] $end
$var wire 8 i" OUT1 [7:0] $end
$scope module ml1 $end
$var wire 1 j" control $end
$var wire 8 k" in1 [7:0] $end
$var wire 8 l" in2 [7:0] $end
$var reg 8 m" out [7:0] $end
$upscope $end
$scope module ml2 $end
$var wire 1 n" control $end
$var wire 8 o" in1 [7:0] $end
$var wire 8 p" in2 [7:0] $end
$var reg 8 q" out [7:0] $end
$upscope $end
$scope module ml4 $end
$var wire 1 r" control $end
$var wire 8 s" in1 [7:0] $end
$var wire 8 t" in2 [7:0] $end
$var reg 8 u" out [7:0] $end
$upscope $end
$upscope $end
$scope module sll5 $end
$var wire 8 v" DATA1 [7:0] $end
$var wire 8 w" DATA2 [7:0] $end
$var wire 8 x" RESULT [7:0] $end
$var wire 8 y" shifted4 [7:0] $end
$var wire 8 z" shifted2 [7:0] $end
$var wire 8 {" shifted1 [7:0] $end
$var wire 8 |" OUT3 [7:0] $end
$var wire 8 }" OUT2 [7:0] $end
$var wire 8 ~" OUT1 [7:0] $end
$scope module ml1 $end
$var wire 1 !# control $end
$var wire 8 "# in1 [7:0] $end
$var wire 8 ## in2 [7:0] $end
$var reg 8 $# out [7:0] $end
$upscope $end
$scope module ml2 $end
$var wire 1 %# control $end
$var wire 8 &# in1 [7:0] $end
$var wire 8 '# in2 [7:0] $end
$var reg 8 (# out [7:0] $end
$upscope $end
$scope module ml4 $end
$var wire 1 )# control $end
$var wire 8 *# in1 [7:0] $end
$var wire 8 +# in2 [7:0] $end
$var reg 8 ,# out [7:0] $end
$upscope $end
$upscope $end
$scope module sll6 $end
$var wire 8 -# DATA1 [7:0] $end
$var wire 8 .# DATA2 [7:0] $end
$var wire 8 /# RESULT [7:0] $end
$var wire 8 0# shifted4 [7:0] $end
$var wire 8 1# shifted2 [7:0] $end
$var wire 8 2# shifted1 [7:0] $end
$var wire 8 3# OUT3 [7:0] $end
$var wire 8 4# OUT2 [7:0] $end
$var wire 8 5# OUT1 [7:0] $end
$scope module ml1 $end
$var wire 1 6# control $end
$var wire 8 7# in1 [7:0] $end
$var wire 8 8# in2 [7:0] $end
$var reg 8 9# out [7:0] $end
$upscope $end
$scope module ml2 $end
$var wire 1 :# control $end
$var wire 8 ;# in1 [7:0] $end
$var wire 8 <# in2 [7:0] $end
$var reg 8 =# out [7:0] $end
$upscope $end
$scope module ml4 $end
$var wire 1 ># control $end
$var wire 8 ?# in1 [7:0] $end
$var wire 8 @# in2 [7:0] $end
$var reg 8 A# out [7:0] $end
$upscope $end
$upscope $end
$scope module sll7 $end
$var wire 8 B# DATA1 [7:0] $end
$var wire 8 C# DATA2 [7:0] $end
$var wire 8 D# RESULT [7:0] $end
$var wire 8 E# shifted4 [7:0] $end
$var wire 8 F# shifted2 [7:0] $end
$var wire 8 G# shifted1 [7:0] $end
$var wire 8 H# OUT3 [7:0] $end
$var wire 8 I# OUT2 [7:0] $end
$var wire 8 J# OUT1 [7:0] $end
$scope module ml1 $end
$var wire 1 K# control $end
$var wire 8 L# in1 [7:0] $end
$var wire 8 M# in2 [7:0] $end
$var reg 8 N# out [7:0] $end
$upscope $end
$scope module ml2 $end
$var wire 1 O# control $end
$var wire 8 P# in1 [7:0] $end
$var wire 8 Q# in2 [7:0] $end
$var reg 8 R# out [7:0] $end
$upscope $end
$scope module ml4 $end
$var wire 1 S# control $end
$var wire 8 T# in1 [7:0] $end
$var wire 8 U# in2 [7:0] $end
$var reg 8 V# out [7:0] $end
$upscope $end
$upscope $end
$scope module sll8 $end
$var wire 8 W# DATA1 [7:0] $end
$var wire 8 X# DATA2 [7:0] $end
$var wire 8 Y# RESULT [7:0] $end
$var wire 8 Z# shifted4 [7:0] $end
$var wire 8 [# shifted2 [7:0] $end
$var wire 8 \# shifted1 [7:0] $end
$var wire 8 ]# OUT3 [7:0] $end
$var wire 8 ^# OUT2 [7:0] $end
$var wire 8 _# OUT1 [7:0] $end
$scope module ml1 $end
$var wire 1 `# control $end
$var wire 8 a# in1 [7:0] $end
$var wire 8 b# in2 [7:0] $end
$var reg 8 c# out [7:0] $end
$upscope $end
$scope module ml2 $end
$var wire 1 d# control $end
$var wire 8 e# in1 [7:0] $end
$var wire 8 f# in2 [7:0] $end
$var reg 8 g# out [7:0] $end
$upscope $end
$scope module ml4 $end
$var wire 1 h# control $end
$var wire 8 i# in1 [7:0] $end
$var wire 8 j# in2 [7:0] $end
$var reg 8 k# out [7:0] $end
$upscope $end
$upscope $end
$scope module sll9 $end
$var wire 8 l# DATA1 [7:0] $end
$var wire 8 m# DATA2 [7:0] $end
$var wire 8 n# RESULT [7:0] $end
$var wire 8 o# shifted4 [7:0] $end
$var wire 8 p# shifted2 [7:0] $end
$var wire 8 q# shifted1 [7:0] $end
$var wire 8 r# OUT3 [7:0] $end
$var wire 8 s# OUT2 [7:0] $end
$var wire 8 t# OUT1 [7:0] $end
$scope module ml1 $end
$var wire 1 u# control $end
$var wire 8 v# in1 [7:0] $end
$var wire 8 w# in2 [7:0] $end
$var reg 8 x# out [7:0] $end
$upscope $end
$scope module ml2 $end
$var wire 1 y# control $end
$var wire 8 z# in1 [7:0] $end
$var wire 8 {# in2 [7:0] $end
$var reg 8 |# out [7:0] $end
$upscope $end
$scope module ml4 $end
$var wire 1 }# control $end
$var wire 8 ~# in1 [7:0] $end
$var wire 8 !$ in2 [7:0] $end
$var reg 8 "$ out [7:0] $end
$upscope $end
$upscope $end
$upscope $end
$scope module or1 $end
$var wire 8 #$ RESULT [7:0] $end
$var wire 8 $$ DATA2 [7:0] $end
$var wire 8 %$ DATA1 [7:0] $end
$upscope $end
$scope module ror1 $end
$var wire 8 &$ RESULT [7:0] $end
$var wire 8 '$ DATA2 [7:0] $end
$var wire 8 ($ DATA1 [7:0] $end
$var reg 8 )$ rotate [7:0] $end
$var integer 32 *$ i [31:0] $end
$upscope $end
$scope module sll1 $end
$var wire 8 +$ RESULT [7:0] $end
$var wire 8 ,$ shifted4 [7:0] $end
$var wire 8 -$ shifted2 [7:0] $end
$var wire 8 .$ shifted1 [7:0] $end
$var wire 8 /$ OUT3 [7:0] $end
$var wire 8 0$ OUT2 [7:0] $end
$var wire 8 1$ OUT1 [7:0] $end
$var wire 8 2$ DATA2 [7:0] $end
$var wire 8 3$ DATA1 [7:0] $end
$scope module ml1 $end
$var wire 1 4$ control $end
$var wire 8 5$ in1 [7:0] $end
$var wire 8 6$ in2 [7:0] $end
$var reg 8 7$ out [7:0] $end
$upscope $end
$scope module ml2 $end
$var wire 1 8$ control $end
$var wire 8 9$ in1 [7:0] $end
$var wire 8 :$ in2 [7:0] $end
$var reg 8 ;$ out [7:0] $end
$upscope $end
$scope module ml4 $end
$var wire 1 <$ control $end
$var wire 8 =$ in1 [7:0] $end
$var wire 8 >$ in2 [7:0] $end
$var reg 8 ?$ out [7:0] $end
$upscope $end
$upscope $end
$scope module sr1 $end
$var wire 8 @$ RESULT [7:0] $end
$var wire 8 A$ shifted4 [7:0] $end
$var wire 8 B$ shifted2 [7:0] $end
$var wire 8 C$ shifted1 [7:0] $end
$var wire 8 D$ OUT3 [7:0] $end
$var wire 8 E$ OUT2 [7:0] $end
$var wire 8 F$ OUT1 [7:0] $end
$var wire 8 G$ DATA2 [7:0] $end
$var wire 8 H$ DATA1 [7:0] $end
$var reg 8 I$ mod_data2 [7:0] $end
$var reg 1 J$ msb $end
$scope module ml1 $end
$var wire 1 K$ control $end
$var wire 8 L$ in1 [7:0] $end
$var wire 8 M$ in2 [7:0] $end
$var reg 8 N$ out [7:0] $end
$upscope $end
$scope module ml2 $end
$var wire 1 O$ control $end
$var wire 8 P$ in1 [7:0] $end
$var wire 8 Q$ in2 [7:0] $end
$var reg 8 R$ out [7:0] $end
$upscope $end
$scope module ml4 $end
$var wire 1 S$ control $end
$var wire 8 T$ in1 [7:0] $end
$var wire 8 U$ in2 [7:0] $end
$var reg 8 V$ out [7:0] $end
$upscope $end
$upscope $end
$upscope $end
$scope module c1 $end
$var wire 8 W$ DATA [7:0] $end
$var wire 8 X$ COMPDATA [7:0] $end
$upscope $end
$scope module c2 $end
$var wire 8 Y$ DATA [7:0] $end
$var wire 8 Z$ COMPDATA [7:0] $end
$upscope $end
$scope module j1 $end
$var wire 8 [$ OFFSET [7:0] $end
$var wire 32 \$ PC_4 [31:0] $end
$var wire 32 ]$ temp [31:0] $end
$var wire 32 ^$ PC_JUMP [31:0] $end
$upscope $end
$scope module m1 $end
$var wire 1 E control $end
$var wire 8 _$ in1 [7:0] $end
$var wire 8 `$ in2 [7:0] $end
$var reg 8 a$ out [7:0] $end
$upscope $end
$scope module m2 $end
$var wire 1 F control $end
$var wire 8 b$ in1 [7:0] $end
$var wire 8 c$ in2 [7:0] $end
$var reg 8 d$ out [7:0] $end
$upscope $end
$scope module m3 $end
$var wire 1 / control $end
$var wire 32 e$ in1 [31:0] $end
$var wire 32 f$ in2 [31:0] $end
$var reg 32 g$ out [31:0] $end
$upscope $end
$scope module m4 $end
$var wire 1 . control $end
$var wire 32 h$ in1 [31:0] $end
$var wire 32 i$ in2 [31:0] $end
$var reg 32 j$ out [31:0] $end
$upscope $end
$scope module ma $end
$var wire 1 H control $end
$var wire 8 k$ in1 [7:0] $end
$var wire 8 l$ in2 [7:0] $end
$var reg 8 m$ out [7:0] $end
$upscope $end
$scope module pc1 $end
$var wire 1 + CLK $end
$var wire 32 n$ PC_NEXT [31:0] $end
$var wire 1 , RESET $end
$var reg 32 o$ PC_0 [31:0] $end
$upscope $end
$scope module reg1 $end
$var wire 1 + CLK $end
$var wire 8 p$ IN [7:0] $end
$var wire 8 q$ INADDRESS [7:0] $end
$var wire 8 r$ OUT1 [7:0] $end
$var wire 8 s$ OUT1ADDRESS [7:0] $end
$var wire 8 t$ OUT2 [7:0] $end
$var wire 8 u$ OUT2ADDRESS [7:0] $end
$var wire 1 , RESET $end
$var wire 1 C WRITE $end
$var integer 32 v$ i [31:0] $end
$upscope $end
$upscope $end
$upscope $end
$enddefinitions $end
#0
$dumpvars
b1000 v$
bx u$
bx t$
bx s$
bx r$
bx q$
bx p$
bx o$
bx n$
bx m$
bx l$
bx k$
bx j$
bx i$
bx h$
bx g$
bx f$
bx e$
bx d$
bx c$
bx b$
bx a$
bx `$
bx _$
bx ^$
bx00 ]$
bx \$
bx [$
bx Z$
bx Y$
bx X$
bx W$
bx V$
bx U$
bx T$
xS$
bx R$
bx Q$
bx P$
xO$
bx N$
bx M$
bx L$
xK$
xJ$
bx I$
bx H$
bx G$
bx F$
bx E$
bx D$
bx C$
bx B$
bx A$
bx @$
bx ?$
bx >$
bx0000 =$
x<$
bx ;$
bx :$
bx00 9$
x8$
bx 7$
bx 6$
bx0 5$
x4$
bx 3$
bx 2$
bx 1$
bx 0$
bx /$
bx0 .$
bx00 -$
bx0000 ,$
bx +$
bx *$
bx )$
bx ($
bx '$
bx &$
bx %$
bx $$
bx #$
b0 "$
b0 !$
b0 ~#
1}#
b0 |#
b0 {#
b0 z#
1y#
b0 x#
b0 w#
b0 v#
1u#
b0 t#
b0 s#
b0 r#
b0 q#
b0 p#
b0 o#
bx n#
b111 m#
b0 l#
b0 k#
b0 j#
b0 i#
1h#
b0 g#
b0 f#
b0 e#
1d#
b0 c#
b0 b#
b0 a#
0`#
b0 _#
b0 ^#
b0 ]#
b0 \#
b0 [#
b0 Z#
bx Y#
b110 X#
b0 W#
b0 V#
b0 U#
b0 T#
1S#
b0 R#
b0 Q#
b0 P#
0O#
b0 N#
b0 M#
b0 L#
1K#
b0 J#
b0 I#
b0 H#
b0 G#
b0 F#
b0 E#
bx D#
b101 C#
b0 B#
b0 A#
b0 @#
b0 ?#
1>#
b0 =#
b0 <#
b0 ;#
0:#
b0 9#
b0 8#
b0 7#
06#
b0 5#
b0 4#
b0 3#
b0 2#
b0 1#
b0 0#
bx /#
b100 .#
b0 -#
b0 ,#
b0 +#
b0 *#
0)#
b0 (#
b0 '#
b0 &#
1%#
b0 $#
b0 ##
b0 "#
1!#
b0 ~"
b0 }"
b0 |"
b0 {"
b0 z"
b0 y"
bx x"
b11 w"
b0 v"
b0 u"
b0 t"
b0 s"
0r"
b0 q"
b0 p"
b0 o"
1n"
b0 m"
b0 l"
b0 k"
0j"
b0 i"
b0 h"
b0 g"
b0 f"
b0 e"
b0 d"
bx c"
b10 b"
b0 a"
b0 `"
b0 _"
b0 ^"
0]"
b0 \"
b0 ["
b0 Z"
0Y"
b0 X"
b0 W"
b0 V"
1U"
b0 T"
b0 S"
b0 R"
b0 Q"
b0 P"
b0 O"
bx N"
b1 M"
b0 L"
b0 K"
b0 J"
b0 I"
0H"
b0 G"
b0 F"
b0 E"
0D"
b0 C"
b0 B"
b0 A"
0@"
b0 ?"
b0 >"
b0 ="
b0 <"
b0 ;"
b0 :"
bx 9"
b0 8"
b0 7"
b0 6"
bx 5"
b0 4"
x3"
b0 2"
bx 1"
b0 0"
x/"
b0 ."
bx -"
b0 ,"
x+"
b0 *"
bx )"
b0 ("
x'"
b0 &"
bx %"
b0 $"
x#"
b0 ""
bx !"
b0 ~
x}
b0 |
bx {
b0 z
xy
b0 x
bx w
b0 v
xu
bx t
bx s
bx r
b0 q
b0 p
b0 o
b0 n
b0 m
b0 l
b0 k
b0 j
bx i
bx h
bx g
bx f
bx e
bx d
bx c
bx b
bx a
bx `
bx _
bx ^
bx ]
bx \
bx [
bx Z
bx Y
bx X
bx W
bx V
bx U
bx T
bx S
bx R
bx Q
bx P
bx O
bx N
bx M
bx L
bx K
bx J
bx I
xH
xG
xF
xE
xD
xC
bx B
bx A
bx @
bx ?
bx >
bx =
bx <
bx ;
bx :
bx 9
bx 8
bx 7
bx 6
bx 5
x4
bx 3
bx 2
bx 1
bx 0
x/
x.
bx -
1,
0+
bx *
bx )
bx (
bx '
bx &
bx %
bx $
bx #
bx "
bx !
$end
#1
b0 x"
b0 c"
b0 N"
b0 9"
b0 n#
b0 Y#
b0 D#
b0 /#
#3
04
b11111111 6
b11111111 U
b11111111 i
b11111111 p$
b0 Q
b0 g
b0 r
#4
1+
#5
b0 )
b0 @
b0 K
b0 o$
b0 (
b0 '
b0 &
b0 %
b0 $
b0 #
b0 "
b0 !
b1000 v$
0,
#6
b100 =
b100 j$
b100 n$
b100 ?
b100 g$
b100 i$
b100 <
b100 J
b100 \$
b100 f$
#7
b100 :
b100 u$
b0 ;
b0 s$
b10 5
b10 q$
b0 A
b1000 ]$
b10 B
b10 [$
b100 b$
b100000000000000100 *
b100000000000000100 -
#8
bx00 g"
bx00 u"
bx00 h"
bx00 q"
bx00 t"
x4
bx0 f"
bx0 k"
bx00 e"
bx00 o"
bx0000 d"
bx0000 s"
bx i"
bx m"
bx p"
b0xxxx D$
b0xxxx V$
bx0000 /$
bx0000 ?$
bx o
bx ""
bx a"
bx l"
0K$
0O$
1S$
1<$
08$
04$
03"
0/"
0+"
0'"
0#"
1}
0y
0u
b101 *$
b100 I$
b0xxxxxxx C$
b0xxxxxxx L$
b0xxxxxx B$
b0xxxxxx P$
b0xxxx A$
b0xxxx T$
0J$
b100 7
b100 V
b100 Y
b100 \
b100 _
b100 s
b100 $$
b100 '$
b100 2$
b100 G$
b100 m$
bx 6
bx U
bx i
bx p$
b100 0
b100 Y$
b100 d$
b100 l$
0.
0/
1C
b0 I
b0 L
b0 c
0E
1F
0D
0G
0H
0+
#9
04
b0 g"
b0 u"
b0 h"
b0 q"
b0 t"
b0 D$
b0 V$
b0 /$
b0 ?$
b0 f"
b0 k"
b0 e"
b0 o"
b0 d"
b0 s"
b0 i"
b0 m"
b0 p"
b0 0$
b0 ;$
b0 >$
b0 E$
b0 R$
b0 U$
b100 6
b100 U
b100 i
b100 p$
b0 1
b0 a$
b0 c$
b0 A$
b0 T$
b0 B$
b0 P$
b0 C$
b0 L$
b0 ,$
b0 =$
b0 -$
b0 9$
b0 .$
b0 5$
b0 o
b0 ""
b0 a"
b0 l"
b101 *$
b0 )$
b0 1$
b0 7$
b0 :$
b0 F$
b0 N$
b0 Q$
bx00 c"
b0xxxx M
b0xxxx e
b0xxxx @$
bx0000 N
bx0000 f
bx0000 +$
bx1xx P
bx1xx h
bx1xx #$
b0x00 S
b0x00 [
b0x00 b
b11111100 2
b11111100 Z$
b11111100 k$
b100 R
b100 ^
b100 `
b0 8
b0 W$
b0 `$
b0 t$
b0 9
b0 W
b0 Z
b0 ]
b0 t
b0 w
b0 {
b0 !"
b0 %"
b0 )"
b0 -"
b0 1"
b0 5"
b0 %$
b0 ($
b0 3$
b0 6$
b0 H$
b0 M$
b0 r$
b1100 >
b1100 ^$
b1100 e$
b1100 h$
#10
b0 c"
b0 M
b0 e
b0 @$
b0 N
b0 f
b0 +$
b0 3
b0 X$
b0 _$
b100 P
b100 h
b100 #$
b0 S
b0 [
b0 b
b0 O
b0 d
b0 &$
#11
b100 T
b100 X
b100 a
#12
1+
#13
b100 #
b100 )
b100 @
b100 K
b100 o$
#14
b1000 =
b1000 j$
b1000 n$
b1000 ?
b1000 g$
b1000 i$
b1000 <
b1000 J
b1000 \$
b1000 f$
#15
1K$
1O$
18$
14$
1y
1u
b1000 *$
b111 I$
b111 7
b111 V
b111 Y
b111 \
b111 _
b111 s
b111 $$
b111 '$
b111 2$
b111 G$
b111 m$
b111 :
b111 u$
b101 5
b101 q$
b111 0
b111 Y$
b111 d$
b111 l$
b10100 ]$
b101 B
b101 [$
b111 b$
b1010000000000000111 *
b1010000000000000111 -
#16
b111 6
b111 U
b111 i
b111 p$
b111 P
b111 h
b111 #$
b11111001 2
b11111001 Z$
b11111001 k$
b111 R
b111 ^
b111 `
0+
#17
b111 T
b111 X
b111 a
b11100 >
b11100 ^$
b11100 e$
b11100 h$
#20
1+
#21
b1000 )
b1000 @
b1000 K
b1000 o$
b111 &
#22
b1100 =
b1100 j$
b1100 n$
b1100 ?
b1100 g$
b1100 i$
b1100 <
b1100 J
b1100 \$
b1100 f$
#23
0K$
0O$
0S$
0<$
08$
04$
0}
0y
0u
b0 I$
b1 *$
b0 7
b0 V
b0 Y
b0 \
b0 _
b0 s
b0 $$
b0 '$
b0 2$
b0 G$
b0 m$
b0 :
b0 u$
b11 5
b11 q$
b0 0
b0 Y$
b0 d$
b0 l$
b1100 ]$
b11 B
b11 [$
b0 b$
b110000000000000000 *
b110000000000000000 -
#24
14
b0 6
b0 U
b0 i
b0 p$
b0 P
b0 h
b0 #$
b0 2
b0 Z$
b0 k$
b0 R
b0 ^
b0 `
0+
#25
b0 T
b0 X
b0 a
b11000 >
b11000 ^$
b11000 e$
b11000 h$
#28
1+
#29
b0 $
b1100 )
b1100 @
b1100 K
b1100 o$
#30
b10000 =
b10000 j$
b10000 n$
b10000 ?
b10000 g$
b10000 i$
b10000 <
b10000 J
b10000 \$
b10000 f$
#31
1K$
14$
1u
b10 *$
b1 I$
b1 7
b1 V
b1 Y
b1 \
b1 _
b1 s
b1 $$
b1 '$
b1 2$
b1 G$
b1 m$
b1 :
b1 u$
b110 5
b110 q$
b1 0
b1 Y$
b1 d$
b1 l$
b11000 ]$
b110 B
b110 [$
b1 b$
b1100000000000000001 *
b1100000000000000001 -
#32
04
b1 6
b1 U
b1 i
b1 p$
b1 P
b1 h
b1 #$
b11111111 2
b11111111 Z$
b11111111 k$
b1 R
b1 ^
b1 `
0+
#33
b1 T
b1 X
b1 a
b101000 >
b101000 ^$
b101000 e$
b101000 h$
#36
1+
#37
b10000 )
b10000 @
b10000 K
b10000 o$
b1 '
#38
b10100 =
b10100 j$
b10100 n$
b10100 ?
b10100 g$
b10100 i$
b10100 <
b10100 J
b10100 \$
b10100 f$
#39
1#"
b1001 I$
b1010 *$
b1001 7
b1001 V
b1001 Y
b1001 \
b1001 _
b1001 s
b1001 $$
b1001 '$
b1001 2$
b1001 G$
b1001 m$
b1001 :
b1001 u$
b111 5
b111 q$
b1001 0
b1001 Y$
b1001 d$
b1001 l$
b11100 ]$
b111 B
b111 [$
b1001 b$
b1110000000000001001 *
b1110000000000001001 -
#40
b1001 6
b1001 U
b1001 i
b1001 p$
b1001 P
b1001 h
b1001 #$
b11110111 2
b11110111 Z$
b11110111 k$
b1001 R
b1001 ^
b1001 `
0+
#41
bx 1
bx a$
bx c$
b1001 T
b1001 X
b1001 a
bx 8
bx W$
bx `$
bx t$
b110000 >
b110000 ^$
b110000 e$
b110000 h$
#42
bx 3
bx X$
bx _$
#44
1+
#45
b1001 (
b10100 )
b10100 @
b10100 K
b10100 o$
#46
b11000 =
b11000 j$
b11000 n$
b11000 ?
b11000 g$
b11000 i$
b11000 <
b11000 J
b11000 \$
b11000 f$
#47
1S$
1<$
0#"
1}
b110 *$
b101 I$
b101 7
b101 V
b101 Y
b101 \
b101 _
b101 s
b101 $$
b101 '$
b101 2$
b101 G$
b101 m$
b101 :
b101 u$
b10 ;
b10 s$
b1 5
b1 q$
b1001 A
b101 0
b101 Y$
b101 d$
b101 l$
b100 ]$
b1 B
b1 [$
b101 b$
b1001000000010000001000000101 *
b1001000000010000001000000101 -
